{
  "viewportWidth": 1920,
  "viewportHeight": 1080,
  "chromeWebSecurity": false,
  "modifyObstructiveCode": false,
  "pluginsFile": "quantum/plugins/index.js",
  "supportFile": "quantum/support/index.js",
  "fixturesFolder": "quantum/tests/constants/scripts.json",
  "integrationFolder": "quantum/tests/",
  "videosFolder": "quantum/logs/videos",
  "screenshotsFolder": "quantum/logs/screenshots",
  "watchForFileChanges": false,
  "globals": {
    "cy": true
  },
  "defaultCommandTimeout": 60000,
  "pageLoadTimeout": 60000,
  "waitForAnimations": true,
  "projectId": "zm6yxz",
  "videoUploadOnPasses": false,
  "experimentalGetCookiesSameSite": false,
  "numTestsKeptInMemory": 10
}
